…
In the next section we learn how useful this approach can be when summarizing by group.

### 4.7.3 Group then summarize with `group_by`

A common operation in data exploration is to first split data into groups and then compute summaries for each group. For example, we may want to compute the average and standard deviation for men’s and women’s heights separately. The `group_by` function helps us do this.

If we type this:
```{r}
heights %>% group_by(sex)
#> # A tibble: 1,050 x 2
#> # Groups:   sex [2]
#>   sex   height
#>   <fct>  <dbl>
#> 1 Male      75
#> 2 Male      70
#> 3 Male      68
#> 4 Male      74
#> 5 Male      61
#> # … with 1,045 more rows
```
…
## 4.11 Tibbles

Tidy data must be stored in data frames. We introduced the data frame in Section [2.4.1](https://rafalab.github.io/dsbook/r-basics.html#data-frames) and have been using the `murders` data frame throughout the book. In Section [4.7.3](https://rafalab.github.io/dsbook/tidyverse.html#group-by) we introduced the `group_by` function, which permits stratifying data before computing summary statistics. But where is the group information stored in the data frame?
```{r}
murders %>% group_by(region)
#> # A tibble: 51 x 6
#> # Groups:   region [4]
#>   state      abb   region population total  rate
#>   <chr>      <chr> <fct>       <dbl> <dbl> <dbl>
#> 1 Alabama    AL    South     4779736   135  2.82
#> 2 Alaska     AK    West       710231    19  2.68
#> 3 Arizona    AZ    West      6392017   232  3.63
#> 4 Arkansas   AR    South     2915918    93  3.19
#> 5 California CA    West     37253956  1257  3.37
#> # … with 46 more rows
```
…
